{
  "contacts": [
    {
      "name": "Naff-Naff",
      "phone": "59014612",
      "_id": 2
    },
    {
      "name": "1520200578096",
      "phone": "1520200578097",
      "_id": 3
    },
    {
      "name": "1520200579201",
      "phone": "",
      "_id": 4
    },
    {
      "_id": "5",
      "name": "1520200580678",
      "phone": ""
    },
    {
      "name": "1520200582470",
      "phone": "",
      "_id": "Sk1qiy5_M"
    },
    {
      "name": "Jaana",
      "phone": "",
      "_id": "HJMqsy5Of"
    },
    {
      "name": "Jaak",
      "phone": "",
      "_id": "HJlG5ikcdf"
    },
    {
      "name": "Tiit",
      "phone": "aa",
      "_id": "ByQcoy5uM"
    },
    {
      "name": "Tiina",
      "phone": "",
      "_id": "S1l7coJquM"
    }
  ]
}